{
    "KPlugin": {
        "Authors": [
            {
                "Email": "fella@posteo.de",
                "Name": "Tobias Fella",
                "Name[az]": "Tobias Fella",
                "Name[ca@valencia]": "Tobias Fella",
                "Name[ca]": "Tobias Fella",
                "Name[cs]": "Tobias Fella",
                "Name[de]": "Tobias Fella",
                "Name[en_GB]": "Tobias Fella",
                "Name[es]": "Tobias Fella",
                "Name[eu]": "Tobias Fella",
                "Name[fi]": "Tobias Fella",
                "Name[fr]": "Tobias Fella",
                "Name[hu]": "Tobias Fella",
                "Name[ia]": "Tobias Fella",
                "Name[id]": "Tobias Fella",
                "Name[is]": "Tobias Fella",
                "Name[it]": "Tobias Fella",
                "Name[ka]": "Tobias Fella",
                "Name[ko]": "Tobias Fella",
                "Name[lt]": "Tobias Fella",
                "Name[nl]": "Tobias Fella",
                "Name[nn]": "Tobias Fella",
                "Name[pl]": "Tobias Fella",
                "Name[pt]": "Tobias Fella",
                "Name[pt_BR]": "Tobias Fella",
                "Name[ro]": "Tobias Fella",
                "Name[ru]": "Tobias Fella",
                "Name[sl]": "Tobias Fella",
                "Name[sv]": "Tobias Fella",
                "Name[tr]": "Tobias Fella",
                "Name[uk]": "Tobias Fella",
                "Name[vi]": "Tobias Fella",
                "Name[x-test]": "xxTobias Fellaxx",
                "Name[zh_CN]": "Tobias Fella",
                "Name[zh_TW]": "Tobias Fella"
            }
        ],
        "Category": "",
        "Description": "Set the Lockscreen PIN",
        "Description[az]": "Kilid ekranı üçün PİN təyin edin",
        "Description[ca@valencia]": "Establix el PIN de la pantalla de bloqueig",
        "Description[ca]": "Estableix el PIN de la pantalla de bloqueig",
        "Description[cs]": "Nastavit PIN zamykací obrazovky",
        "Description[de]": "PIN für Bildschirmsperre setzen",
        "Description[en_GB]": "Set the Lockscreen PIN",
        "Description[es]": "Definir el PIN de la pantalla de bloqueo",
        "Description[eu]": "Ezarri giltzatzeko pantailako PINa",
        "Description[fi]": "Vaihda lukitusnäytön PIN",
        "Description[fr]": "Définir le code « PIN » pour le déverrouillage de l'écran",
        "Description[hu]": "A képernyőzár PIN-kódjának beállítása",
        "Description[ia]": "Fixa le PIN de blocar le chermo",
        "Description[id]": "Atur PIN Layar Kunci",
        "Description[is]": "Stilla PIN-númer fyrir læsiskjá",
        "Description[it]": "Imposta il PIN di blocco dello schermo",
        "Description[ka]": "ჩაკეტილი ეკრანის PIN კოდის დაყენება",
        "Description[ko]": "잠금 화면 PIN 설정",
        "Description[lt]": "Nustatyti ekrano užrakto PIN kodą",
        "Description[nl]": "De PIN van schermvergrendeling instellen",
        "Description[nn]": "Vel pin-kode for låseskjerm",
        "Description[pl]": "Nadaj numer PIN ekranu blokady",
        "Description[pt]": "Definir o PIN do Ecrã de Bloqueio",
        "Description[pt_BR]": "Define o PIN da tela de bloqueio",
        "Description[ro]": "Stabilește PIN-ul ecranului de blocare",
        "Description[ru]": "Настройка PIN-кода блокировки экрана",
        "Description[sl]": "Nastavi Pin za zaklepanje zaslona",
        "Description[sv]": "Ställ in PIN-kod för skärmlåsning",
        "Description[tr]": "Kilit Ekranı PIN'ini ayarla",
        "Description[uk]": "Встановлення коду блокування екрана",
        "Description[vi]": "Đặt PIN màn hình khoá",
        "Description[x-test]": "xxSet the Lockscreen PINxx",
        "Description[zh_CN]": "设置锁屏 PIN 码",
        "Description[zh_TW]": "設定鎖定螢幕 PIN 碼",
        "FormFactors": [
            "handset",
            "tablet",
            "mediacenter",
            "desktop"
        ],
        "Icon": "lock",
        "License": "GPL",
        "Name": "Pin",
        "Name[az]": "Pin",
        "Name[ca@valencia]": "PIN",
        "Name[ca]": "PIN",
        "Name[cs]": "Pin",
        "Name[de]": "Pin",
        "Name[en_GB]": "Pin",
        "Name[es]": "Pin",
        "Name[eu]": "PIN",
        "Name[fi]": "PIN",
        "Name[fr]": "Épingler",
        "Name[hu]": "PIN-kód",
        "Name[ia]": "Pin",
        "Name[id]": "Pin",
        "Name[is]": "PIN-númer",
        "Name[it]": "Pin",
        "Name[ka]": "მიმაგრება",
        "Name[ko]": "고정",
        "Name[lt]": "PIN kodas",
        "Name[nl]": "PIN",
        "Name[nn]": "Pin-nummer",
        "Name[pa]": "ਪਿੰਨ",
        "Name[pl]": "Numer PIN",
        "Name[pt]": "PIN",
        "Name[pt_BR]": "PIN",
        "Name[ro]": "PIN",
        "Name[ru]": "PIN",
        "Name[sk]": "Pin",
        "Name[sl]": "Pin",
        "Name[sv]": "PIN-kod",
        "Name[ta]": "கடவெண்",
        "Name[tr]": "Pin",
        "Name[uk]": "Код",
        "Name[vi]": "PIN",
        "Name[x-test]": "xxPinxx",
        "Name[zh_CN]": "PIN 码",
        "Name[zh_TW]": "PIN 碼",
        "Version": "1.0",
        "Website": "https://kde.org"
    },
    "X-KDE-System-Settings-Parent-Category": "personalization"
}
